8456321.97.29186541967453286.357491.45729183621986354736142978557418629.928357461
8324567919571.24634169732586795.18.25237681491.43.9576761834925295617384348295617
4.561823772634958131872546957.89431.64357189218926374583.9561242641879539514326.8
256831749.376495121.472538664158.9237251938.4.89462175978254631562318497413976258
3.5..7194681495327794321568539614872268739451417.8263915397824694215678387.243915
36172594898741.25.25.869137876934512523186794419257.83.45371829738592461192648375
8572613943124957869643.8215195734628728.5614364.182579581.479324795238.1236819457
8932751466579413281426385979715846.24683297513251..9845.641287971.893265289756413
36172..489874132562548691378.6934512523186794419257.836453718297.8592461192648375
857392416214856379.361472.5.6842913749.7316581736859423215687946459738.1789214563
3.94817627649238511285.7349215678493473259186.9613427594.71653868134592.537892614
17285439646819327553..264819146728536573891248234.576938.2619.7246937518791548632
1256493788347152966.7382415.469531.23598217642814769535.32986414681375.9912564837
841.65792736.948155291876342.567134969743215841385926717254398635892647196471.5.3
3617259489874.325625.86913787693451252.1867944192576836453718297.8592461.92648375
2384679154.5293678796851234973548.62624139.5785172649358.9123461623.4589349685721
31286594765.934182894172563246791358.35486279789523416478319.255236.879196.257834
271.39546469275..383516.792342917658658423971917586.34123758469796342185584691327
36279418.5186237944971.523685946237114683752927.51946893.24861778135694262497.853
6728413594.57632813819526748136.74.552631479.7495281362671895431384759629.4236817
98752146346397851221.3469873.1769.587268351945982.437613265784987.192635659483721
675948213328165974149732.682913574.64862917355..68412981452369795287634176.419852
3847.91561253469787965.14234176935828624153979538726142319678.564.2587315781342.9
95.781624627394518841256.3736451827929563784117894235641982376553647.1.27821.5493
197384562852671.34463952.7.58971324663429871527146539831584.62974652.183928136457
14972568382643.9575.38691423851972649142.637826738459175891243649.67381563.548729
9271368456.1985723835.7269136475918225861437.17932856.493567218.86291437712843956
97286354161874592345329168754912.736821637459736459.1829538617418497236.367514.92
85271694.197843652463.25187278634591645179328931582476786.91235314.587695.9367814
1936.248546235897178.91462353829671467413529.21.48735682.741539941523867357869142
345871269279.531848614.953719734685245271839668.5.27.1738264915516937428924185673
13.6497857582136499647851235438972.6276.318948914..537619378452327154968485962371
7859246319241635876315.82498.369271515938..262764513984687391523972158645128.6973
294863517715429638863751492.52947863479386251638512974986134.255.1678349.47295.86
38.567921126439785.598213465637.82148.7312659912645873231974568495286137.78153492
1597438622765894313.8612759624978.15917.3568458316429743582197686149752379235.1.8
763128459924567831851934276418.9.36.27564319.6397815423428769151.6359724597412683
17385962429874615345623197831742.56984916573262597384..8269431793451728676.382495
94753182663582491.2.879645356318724989465237117.349568386475192759.18634421963785
873961.25624753.1895124837651869423726913758..3758269.382475169795316842146829753
8469137.2395742816172658934.54289163983165247.214.7589238594671419876325567321.98
172843659958.274316435197.886435219753.961284219784365491238576.85176.42726495813
792568143453.19867.613749526.589371437914268514875623928493.576937685.21516427398
673815.29.452798369826345714195637823.742891525879136452198764.8.4156297796342158
7925681434.32198.78613.495262589371437.142685148756239284931576937685421516427.98
16285749353412967878964.521475312986913586742628.94135.564782192.1935.67897261354
